Inference_simulations1
…
To do: Run these code blocks Do you understand what each line is doing here? (the map function above is hard, just focus here?)

tea_data_summary <- samps |>
  group_by(sim, condition) |> # group by simulation #, and condition
  summarise(mean_rating = mean(rating)) |> # summarize across ratings
  group_by(sim) |> # now get difference
  summarise(delta = mean_rating[condition == "milk first"] -
              mean_rating[condition == "tea first"])

`summarise()` has grouped output by 'sim'. You can override using the `.groups`
argument.

tea_data_summary

# A tibble: 1,000 × 2
     sim delta
   <int> <dbl>
 1     1 0.778
 2     2 1.44 
 3     3 1.11 
 4     4 1.44 
 5     5 1.39 
 6     6 1.67 
 7     7 1.61 
 8     8 1.56 
 9     9 1.89 
10    10 1.33 
# ℹ 990 more rows
When the sample size increases, I do see some changes in the estimation of mean difference, but it is hard to tell the actual patterns of changing.

tea_data_highn_summary <- samps_highn |>
  group_by(sim, condition) |> # group by simulation #, and condition
  summarise(mean_rating = mean(rating)) |> # summarize across ratings
  group_by(sim) |> # now get difference
  summarise(delta = mean_rating[condition == "milk first"] -
              mean_rating[condition == "tea first"])

`summarise()` has grouped output by 'sim'. You can override using the `.groups`
argument.

tea_data_highn_summary

# A tibble: 1,000 × 2
     sim delta
   <int> <dbl>
 1     1  1.25
 2     2  1.58
 3     3  1.69
 4     4  1.54
 5     5  1.27
 6     6  1.60
 7     7  1.56
 8     8  1.27
 9     9  1.33
10    10  1.29
# ℹ 990 more rows
…
